<?xml version="1.0" encoding="utf-8"?>
<!-- Generator: Adobe Illustrator 16.0.4, SVG Export Plug-In . SVG Version: 6.00 Build 0)  -->
<!DOCTYPE svg PUBLIC "-//W3C//DTD SVG 1.1//EN" "http://www.w3.org/Graphics/SVG/1.1/DTD/svg11.dtd">
<svg version="1.1" id="レイヤー_1" xmlns="http://www.w3.org/2000/svg" xmlns:xlink="http://www.w3.org/1999/xlink" x="0px"
	 y="0px" width="69px" height="28px" viewBox="0 0 69 28" enable-background="new 0 0 69 28" xml:space="preserve">
<g>
	<path fill="#FFFFFF" d="M34.5,28C15.154,28,0,21.851,0,14S15.154,0,34.5,0S69,6.149,69,14S53.846,28,34.5,28z M34.5,1
		C16.028,1,1,6.832,1,14c0,7.168,15.028,13,33.5,13C52.972,27,68,21.168,68,14C68,6.832,52.972,1,34.5,1z"/>
	<path fill="#FFFFFF" d="M51.203,16.641v-1.945h3.9v-1.51h-3.9v-1.826h4.416V9.801h-6.347v8.398h6.503v-1.559H51.203z
		 M43.896,18.343c2.401,0,3.564-1.198,3.564-2.602c0-3.082-4.885-2.014-4.885-3.564c0-0.529,0.444-0.962,1.598-0.962
		c0.743,0,1.548,0.217,2.326,0.662L47.1,10.4c-0.779-0.492-1.859-0.744-2.915-0.744c-2.389,0-3.54,1.187-3.54,2.618
		c0,3.12,4.884,2.041,4.884,3.611c0,0.517-0.468,0.899-1.621,0.899c-1.008,0-2.063-0.359-2.771-0.875l-0.66,1.463
		C41.221,17.947,42.563,18.343,43.896,18.343 M34.597,16.689c-1.501,0-2.629-1.094-2.629-2.689c0-1.597,1.128-2.689,2.629-2.689
		c1.5,0,2.628,1.092,2.628,2.689C37.225,15.596,36.097,16.689,34.597,16.689 M34.597,18.343c2.64,0,4.595-1.835,4.595-4.343
		c0-2.509-1.955-4.344-4.595-4.344C31.943,9.656,30,11.503,30,14C30,16.496,31.943,18.343,34.597,18.343 M22.944,18.199H29.1v-1.583
		h-4.212V9.801h-1.943V18.199z M17.688,18.343c1.464,0,2.676-0.527,3.468-1.499l-1.248-1.151c-0.564,0.66-1.272,0.997-2.112,0.997
		c-1.572,0-2.688-1.105-2.688-2.689c0-1.585,1.116-2.689,2.688-2.689c0.84,0,1.548,0.336,2.112,0.984l1.248-1.151
		c-0.792-0.96-2.004-1.488-3.456-1.488c-2.616,0-4.558,1.811-4.558,4.344C13.142,16.532,15.083,18.343,17.688,18.343"/>
</g>
</svg>
