<?xml version="1.0" encoding="utf-8"?>
<!-- Generator: Adobe Illustrator 16.0.4, SVG Export Plug-In . SVG Version: 6.00 Build 0)  -->
<!DOCTYPE svg PUBLIC "-//W3C//DTD SVG 1.1//EN" "http://www.w3.org/Graphics/SVG/1.1/DTD/svg11.dtd">
<svg version="1.1" id="レイヤー_1" xmlns="http://www.w3.org/2000/svg" xmlns:xlink="http://www.w3.org/1999/xlink" x="0px"
	 y="0px" width="136px" height="14px" viewBox="0 0 136 14" enable-background="new 0 0 136 14" xml:space="preserve">
<g>
	<g>
		<g>
			<path fill="#FEFEFE" d="M1.708,9.051c0-0.939,0.62-1.49,1.41-1.49c0.49,0,0.92,0.23,1.21,0.74l1.21-0.65
				c-0.39-0.877-1.28-1.367-2.41-1.367c-1.75,0-2.999,1.149-2.999,2.77c0,1.621,1.249,2.771,2.999,2.771c1.13,0,2.02-0.5,2.41-1.359
				l-1.21-0.66c-0.29,0.521-0.72,0.74-1.21,0.74C2.329,10.541,1.708,9.992,1.708,9.051 M10.7,9.051c0,0.932-0.59,1.49-1.37,1.49
				c-0.781,0-1.381-0.559-1.381-1.49c0-0.93,0.6-1.49,1.381-1.49C10.109,7.561,10.7,8.121,10.7,9.051 M12.278,9.051
				c0-1.62-1.239-2.77-2.949-2.77c-1.711,0-2.96,1.149-2.96,2.77c0,1.621,1.249,2.77,2.96,2.77S12.278,10.672,12.278,9.051
				 M17.649,9.051c0,0.932-0.59,1.49-1.37,1.49c-0.781,0-1.381-0.559-1.381-1.49c0-0.93,0.6-1.49,1.381-1.49
				C17.06,7.561,17.649,8.121,17.649,9.051 M19.229,9.051c0-1.62-1.239-2.77-2.949-2.77c-1.711,0-2.96,1.149-2.96,2.77
				c0,1.621,1.249,2.77,2.96,2.77C17.989,11.82,19.229,10.672,19.229,9.051 M26.568,11.74l-2.44-3.1l2.24-2.281h-1.86l-2.28,2.162
				V4.321h-1.559v7.419h1.559v-1.369l0.75-0.74l1.7,2.109H26.568z M31.238,8.582h-2.649c0.11-0.691,0.62-1.122,1.33-1.122
				C30.619,7.46,31.128,7.9,31.238,8.582 M32.679,9.49c0.01-0.129,0.03-0.299,0.03-0.42c0-1.73-1.22-2.789-2.799-2.789
				c-1.64,0-2.87,1.159-2.87,2.77c0,1.602,1.21,2.77,3.07,2.77c0.969,0,1.719-0.301,2.219-0.867l-0.83-0.9
				c-0.37,0.354-0.78,0.521-1.349,0.521c-0.82,0-1.39-0.41-1.54-1.082L32.679,9.49L32.679,9.49z M38.1,9.051
				c0,0.932-0.6,1.49-1.37,1.49c-0.781,0-1.381-0.559-1.381-1.49c0-0.93,0.6-1.49,1.381-1.49C37.5,7.561,38.1,8.121,38.1,9.051
				 M38.14,11.74h1.489V4.321H38.07V6.93c-0.39-0.439-0.95-0.649-1.611-0.649c-1.52,0-2.689,1.079-2.689,2.77
				c0,1.691,1.169,2.77,2.689,2.77c0.721,0,1.291-0.229,1.681-0.697V11.74z M48.979,9.051c0,0.932-0.59,1.49-1.371,1.49
				c-0.78,0-1.37-0.559-1.37-1.49c0-0.93,0.59-1.49,1.37-1.49C48.39,7.561,48.979,8.121,48.979,9.051 M50.559,9.051
				c0-1.69-1.169-2.77-2.679-2.77c-0.671,0-1.221,0.21-1.621,0.649V4.321H44.7v7.419h1.489v-0.619
				c0.39,0.469,0.97,0.699,1.691,0.699C49.39,11.82,50.559,10.742,50.559,9.051 M54.758,12.072l2.43-5.711h-1.5l-1.52,3.65
				l-1.509-3.65h-1.61l2.329,5.42l-0.02,0.051c-0.21,0.479-0.449,0.67-0.879,0.67c-0.31,0-0.64-0.131-0.88-0.34l-0.57,1.107
				c0.35,0.311,0.95,0.488,1.5,0.488C53.499,13.76,54.238,13.371,54.758,12.072 M82.441,11.471V0.943c0-0.388-0.312-0.702-0.7-0.702
				h-6.187c-0.39,0-0.701,0.314-0.701,0.702V5.03l-4.125-4.212c-0.248-0.371-0.646-0.577-1.031-0.577H63.51
				c-0.387,0-0.701,0.314-0.701,0.702v10.528c0,0.387,0.314,0.7,0.701,0.7h6.188c0.388,0,0.7-0.313,0.7-0.7V7.465
				c0.205,0.139,4.371,4.294,4.371,4.294c0.248,0.248,0.396,0.412,0.785,0.412h6.188C82.129,12.172,82.441,11.857,82.441,11.471
				 M93.916,7.176h-1.307l0.652-1.569L93.916,7.176z M103.879,11.49L97.727,0.942c-0.221-0.254-0.289-0.695-1.053-0.695h-6.826
				c-0.765,0-0.832,0.441-1.053,0.695L82.643,11.49c-0.213,0.695,0.086,0.703,0.476,0.703h6.848c0.388,0,0.604-0.312,0.812-0.703
				l0.289-0.625h4.394l0.289,0.625c0.206,0.393,0.425,0.703,0.812,0.703h6.849C103.791,12.193,104.092,12.186,103.879,11.49
				 M117.802,11.49V8.107c0-0.391-0.315-0.706-0.702-0.706h-5.072h-0.004V0.949c0-0.387-0.312-0.702-0.7-0.702h-6.2
				c-0.389,0-0.7,0.315-0.7,0.702V11.49c0,0.389,0.312,0.703,0.7,0.703H117.1C117.486,12.193,117.802,11.879,117.802,11.49
				 M135.863,8.002V0.949c0-0.387-0.313-0.702-0.701-0.702h-6.2c-0.388,0-0.7,0.315-0.7,0.702v6.42c0,0-0.27,0.495-1.424,0.495
				s-1.203-0.495-1.203-0.495v-6.42c0-0.387-0.314-0.702-0.701-0.702h-6.201c-0.387,0-0.699,0.315-0.699,0.702v7.012
				c0,0-0.463,4.281,8.859,4.281S135.863,8.002,135.863,8.002"/>
		</g>
	</g>
</g>
</svg>
