<?xml version="1.0" encoding="utf-8"?>
<!-- Generator: Adobe Illustrator 16.0.4, SVG Export Plug-In . SVG Version: 6.00 Build 0)  -->
<!DOCTYPE svg PUBLIC "-//W3C//DTD SVG 1.1//EN" "http://www.w3.org/Graphics/SVG/1.1/DTD/svg11.dtd">
<svg version="1.1" id="レイヤー_1" xmlns="http://www.w3.org/2000/svg" xmlns:xlink="http://www.w3.org/1999/xlink" x="0px"
	 y="0px" width="11px" height="11px" viewBox="0 0 11 11" enable-background="new 0 0 11 11" xml:space="preserve">
<polygon fill="#FFFFFF" points="10.5,4.5 6.5,4.5 6.5,0.5 4.5,0.5 4.5,4.5 0.5,4.5 0.5,6.5 4.5,6.5 4.5,10.5 6.5,10.5 6.5,6.5 
	10.5,6.5 "/>
</svg>
