<?xml version="1.0" encoding="utf-8"?>
<!-- Generator: Adobe Illustrator 16.0.4, SVG Export Plug-In . SVG Version: 6.00 Build 0)  -->
<!DOCTYPE svg PUBLIC "-//W3C//DTD SVG 1.1//EN" "http://www.w3.org/Graphics/SVG/1.1/DTD/svg11.dtd">
<svg version="1.1" id="Logo" xmlns="http://www.w3.org/2000/svg" xmlns:xlink="http://www.w3.org/1999/xlink" x="0px" y="0px"
	 width="33px" height="33px" viewBox="0 0 33 33" enable-background="new 0 0 33 33" xml:space="preserve">
<g id="Logo_1_">
	<path id="white_background" fill="#7B7D83" d="M29.221,9.963c0.02,0.283,0.02,0.564,0.02,0.851c0,8.691-6.617,18.715-18.714,18.715
		v-0.006c-3.574,0.006-7.074-1.019-10.082-2.949c0.52,0.062,1.042,0.095,1.565,0.097c2.961,0.002,5.839-0.992,8.168-2.821
		c-2.814-0.054-5.282-1.888-6.146-4.567c0.986,0.189,2.002,0.15,2.969-0.113c-3.068-0.619-5.276-3.316-5.276-6.448
		c0-0.028,0-0.055,0-0.082c0.915,0.509,1.938,0.792,2.985,0.822C1.82,11.53,0.929,7.686,2.674,4.68
		c3.339,4.109,8.266,6.607,13.555,6.871c-0.53-2.284,0.194-4.678,1.902-6.283c2.649-2.49,6.815-2.363,9.307,0.285
		c1.473-0.291,2.885-0.831,4.177-1.598c-0.491,1.522-1.519,2.816-2.892,3.639C30.027,7.44,31.301,7.09,32.5,6.558
		C31.619,7.879,30.506,9.031,29.221,9.963z"/>
</g>
</svg>
